1200 500 1100 500
1100 500 1200 500
1200 400 1100 400
1100 400 1200 400
1000 500 950 400
950 400 1000 500
550 400 650 400
650 400 550 400
550 450 650 450
650 450 550 450
550 500 650 500
650 500 550 500
250 400 350 400
350 400 250 400
1100 500 1100 400
1100 400 1100 500
1200 500 1200 400
1200 400 1200 500
1150 500 1050 500
1050 500 1150 500
1150 400 1050 400
1050 400 1150 400
1050 500 1050 400
1050 400 1050 500
1000 500 1000 400
1000 400 1000 500
950 500 950 400
950 400 950 500
500 500 500 400
500 400 500 500
500 450 400 450
400 450 500 450
400 500 400 400
300 500 300 400
300 400 300 500
400 400 400 500
550 400 550 500
550 500 550 400
800 400 800 500
800 500 800 400
900 500 800 500
800 500 900 500
900 450 800 450
800 400 900 400
900 400 800 400
800 450 900 450
